interactions:
- request:
    body: null
    headers:
      Accept:
      - application/json
      Accept-Encoding:
      - gzip, deflate
      Connection:
      - keep-alive
    method: GET
    uri: https://dappradar.com/v2/api/dapps?params=WkdGd2NISmhaR0Z5Y0dGblpUMHhKbk5uY205MWNEMXRZWGdtWTNWeWNtVnVZM2s5VlZORUptWmxZWFIxY21Wa1BURW1jbUZ1WjJVOVpHRjVKbk52Y25ROWRYTmxjaVp2Y21SbGNqMWtaWE5qSm14cGJXbDBQVEky
  response:
    body:
      string: '{"page":1,"resultsPerPage":10,"pageCount":323,"resultCount":8403,"dapps":[{"id":3803,"name":"Splinterlands","slug":"splinterlands","new":false,"statistic":{"balance":415049.781,"balanceInFiat":387563.94,"totalBalanceInFiat":387563.94,"graph":"https:\/\/s3.amazonaws.com\/dapp-activity.dappradar.com\/hive_3803_f4080b58e0396f39f4e6ba94a0fd5884.png","exchangeRate":1,"currencyName":"usd","transactionCount":2443065,"userActivity":305103,"volumeInFiat":7976.610000000001,"totalVolumeInFiat":7976.610000000001,"totalVolumeChangeInFiat":-19.86,"changes":{"dau":{"status":"+4.54%","label":"positive"},"volume":{"status":"-58.81%","label":"negative"},"tx":{"status":"+4.24%","label":"positive"},"tokenVolume":{"status":"-","label":"neutral"},"totalVolume":{"status":"-19.86%","label":"negative"},"totalBalance":{"status":"-2.26%","label":"negative"}}},"godzillaId":20,"slugs":{"multichain":"splinterlands","hive":"splinterlands","wax":"splinterlands"},"logo":"https:\/\/dashboard-assets.dappradar.com\/document\/3803\/splinterlands-dapp-games-hive-logo-50x50_a226c66bc5a85c250400e213a02de3a0.png","deepLink":"https:\/\/dappradar.com\/deeplink\/3803","mobileFriendly":false,"featured":false,"protocols":["hive","wax"],"activeProtocols":["hive","wax"],"category":"games","tracked":true},{"id":4600,"name":"PancakeSwap","slug":"pancakeswap","new":false,"statistic":{"balance":0,"balanceInFiat":0,"totalBalanceInFiat":1787218283.97,"graph":"https:\/\/s3.amazonaws.com\/dapp-activity.dappradar.com\/bsc_4600_0966d2b554616381f9ed607c38e69a29.png","exchangeRate":1,"currencyName":"usd","transactionCount":825950,"userActivity":289333,"volumeInFiat":90647866.04,"totalVolumeInFiat":223688791.05,"totalVolumeChangeInFiat":-13.66,"changes":{"dau":{"status":"-7.74%","label":"negative"},"volume":{"status":"-13.58%","label":"negative"},"tx":{"status":"-2.27%","label":"negative"},"tokenVolume":{"status":"-13.71%","label":"negative"},"totalVolume":{"status":"-13.66%","label":"negative"},"totalBalance":{"status":"+1.06%","label":"positive"}}},"godzillaId":null,"slugs":{"binance-smart-chain":"pancakeswap"},"logo":"https:\/\/dashboard-assets.dappradar.com\/document\/4600\/pancakeswap-dapp-defi-bsc-logo-50x50_20e5d8b6c50c2cead9eb33120e4e1417.png","deepLink":"https:\/\/dappradar.com\/deeplink\/4600","mobileFriendly":false,"featured":false,"protocols":["binance-smart-chain"],"activeProtocols":["binance-smart-chain"],"category":"defi","tracked":true},{"id":5314,"name":"Alien
        Worlds","slug":"alien-worlds","new":false,"statistic":{"balance":0,"balanceInFiat":0,"totalBalanceInFiat":11928214.27,"graph":"https:\/\/s3.amazonaws.com\/dapp-activity.dappradar.com\/wax_5314_f7d222dc85596eab5a1666bb5d9398f0.png","exchangeRate":1,"currencyName":"usd","transactionCount":9905453,"userActivity":235631,"volumeInFiat":0,"totalVolumeInFiat":759203.57,"totalVolumeChangeInFiat":-51.58,"changes":{"dau":{"status":"-1.40%","label":"negative"},"volume":{"status":"-","label":"neutral"},"tx":{"status":"+5.00%","label":"positive"},"tokenVolume":{"status":"-53.63%","label":"negative"},"totalVolume":{"status":"-51.58%","label":"negative"},"totalBalance":{"status":"+0.95%","label":"positive"}}},"godzillaId":null,"slugs":{"multichain":"alien-worlds","wax":"alien-worlds","binance-smart-chain":"alien-worlds"},"logo":"https:\/\/dashboard-assets.dappradar.com\/document\/5314\/alienworlds-dapp-games-wax-logo-50x50_7eb46e879e197fbebc312a031961d539.png","deepLink":"https:\/\/dappradar.com\/deeplink\/5314","mobileFriendly":false,"featured":false,"protocols":["wax","binance-smart-chain"],"activeProtocols":["wax","binance-smart-chain"],"category":"games","tracked":true},{"id":8430,"name":"Farmers
        World","slug":"farmers-world","new":false,"statistic":{"balance":0,"balanceInFiat":0,"totalBalanceInFiat":0,"graph":"https:\/\/s3.amazonaws.com\/dapp-activity.dappradar.com\/wax_8430_9a6a61dfbdb9a5904fe1253fd86052f1.png","exchangeRate":1,"currencyName":"usd","transactionCount":6838275,"userActivity":111680,"volumeInFiat":0,"totalVolumeInFiat":2300.16,"totalVolumeChangeInFiat":-11.11,"changes":{"dau":{"status":"+1.44%","label":"positive"},"volume":{"status":"-","label":"neutral"},"tx":{"status":"+4.18%","label":"positive"},"tokenVolume":{"status":"-11.11%","label":"negative"},"totalVolume":{"status":"-11.11%","label":"negative"},"totalBalance":{"status":"-","label":"neutral"}}},"godzillaId":null,"slugs":{"wax":"farmers-world"},"logo":"https:\/\/dashboard-assets.dappradar.com\/document\/8430\/farmersworld-dapp-games-wax-logo-50x50_81f91937d65e727d9601165d9a61848e.png","deepLink":"https:\/\/dappradar.com\/deeplink\/8430","mobileFriendly":false,"featured":false,"protocols":["wax"],"activeProtocols":["wax"],"category":"games","tracked":true},{"id":4098,"name":"AtomicAssets","slug":"atomicassets","new":false,"statistic":{"balance":398.4151,"balanceInFiat":908.39,"totalBalanceInFiat":908.39,"graph":"https:\/\/s3.amazonaws.com\/dapp-activity.dappradar.com\/wax_4098_5fc5dc3b0234cbfb438d68c7958c74cb.png","exchangeRate":1,"currencyName":"usd","transactionCount":790849,"userActivity":108877,"volumeInFiat":226318.76,"totalVolumeInFiat":226318.76,"totalVolumeChangeInFiat":-28.59,"changes":{"dau":{"status":"+14.95%","label":"positive"},"volume":{"status":"-28.59%","label":"negative"},"tx":{"status":"-53.52%","label":"negative"},"tokenVolume":{"status":"-","label":"neutral"},"totalVolume":{"status":"-28.59%","label":"negative"},"totalBalance":{"status":"+93.93%","label":"positive"}}},"godzillaId":47,"slugs":{"multichain":"atomicassets","wax":"atomicassets","eos":"atomicassets"},"logo":"https:\/\/dashboard-assets.dappradar.com\/document\/4098\/atomicassets-dapp-other-wax-logo-50x50_0b09297a60fe708557fb504c0de8a6c7.png","deepLink":"https:\/\/dappradar.com\/deeplink\/4098","mobileFriendly":false,"featured":false,"protocols":["wax","eos"],"activeProtocols":["wax","eos"],"category":"other","tracked":true},{"id":9495,"name":"Axie
        Infinity","slug":"axie-infinity","new":false,"statistic":{"balance":32.371094028017,"balanceInFiat":81169.51000000001,"totalBalanceInFiat":2320591139.55,"graph":"https:\/\/s3.amazonaws.com\/dapp-activity.dappradar.com\/ronin_9495_41dd8d5cfd545d4340ec61aa9d6fc072.png","exchangeRate":1,"currencyName":"usd","transactionCount":259669,"userActivity":90876,"volumeInFiat":0,"totalVolumeInFiat":11619801.91,"totalVolumeChangeInFiat":4.59,"changes":{"dau":{"status":"+5.34%","label":"positive"},"volume":{"status":"-","label":"neutral"},"tx":{"status":"+1.00%","label":"positive"},"tokenVolume":{"status":"+4.59%","label":"positive"},"totalVolume":{"status":"+4.59%","label":"positive"},"totalBalance":{"status":"-2.03%","label":"negative"}}},"godzillaId":null,"slugs":{"multichain":"axie-infinity","ronin":"axie-infinity","ethereum":"axie-infinity"},"logo":"https:\/\/dashboard-assets.dappradar.com\/document\/266\/axieinfinity-dapp-games-eth-logo-50x50_29c76363b3775610e92c2ac9737572b6.png","deepLink":"https:\/\/dappradar.com\/deeplink\/9495","mobileFriendly":false,"featured":false,"protocols":["ronin","ethereum"],"activeProtocols":["ronin","ethereum"],"category":"games","tracked":true},{"id":3388,"name":"Upland","slug":"upland","new":false,"statistic":{"balance":22514.1054,"balanceInFiat":51332.16,"totalBalanceInFiat":51332.16,"graph":"https:\/\/s3.amazonaws.com\/dapp-activity.dappradar.com\/eos_3388_7d7b564d6231858405bc39967b0d5083.png","exchangeRate":1,"currencyName":"usd","transactionCount":304007,"userActivity":63279,"volumeInFiat":0,"totalVolumeInFiat":0,"totalVolumeChangeInFiat":0,"changes":{"dau":{"status":"+5.37%","label":"positive"},"volume":{"status":"-","label":"neutral"},"tx":{"status":"-2.20%","label":"negative"},"tokenVolume":{"status":"-","label":"neutral"},"totalVolume":{"status":"-","label":"neutral"},"totalBalance":{"status":"-4.42%","label":"negative"}}},"godzillaId":1211,"slugs":{"eos":"upland"},"logo":"https:\/\/dashboard-assets.dappradar.com\/document\/3388\/upland-games-eos-logo-50x50_e6b347dd682126c7dceb525b4e414d9a.png","deepLink":"https:\/\/dappradar.com\/deeplink\/3388","mobileFriendly":false,"featured":false,"protocols":["eos"],"activeProtocols":["eos"],"category":"games","tracked":true},{"id":13,"name":"OpenSea","slug":"opensea","new":false,"statistic":{"balance":12.682916074666,"balanceInFiat":32221.71,"totalBalanceInFiat":92279.32,"graph":"https:\/\/s3.amazonaws.com\/dapp-activity.dappradar.com\/ethereum_13_ce5d74cf5c891702d865935b06049cb7.png","exchangeRate":1,"currencyName":"usd","transactionCount":103737,"userActivity":53953,"volumeInFiat":199956341.32999998,"totalVolumeInFiat":199956343.81,"totalVolumeChangeInFiat":30.92,"changes":{"dau":{"status":"+3.28%","label":"positive"},"volume":{"status":"+30.92%","label":"positive"},"tx":{"status":"+0.76%","label":"positive"},"tokenVolume":{"status":"-85.98%","label":"negative"},"totalVolume":{"status":"+30.92%","label":"positive"},"totalBalance":{"status":"-1.75%","label":"negative"}}},"godzillaId":15,"slugs":{"multichain":"opensea","ethereum":"opensea","polygon":"opensea"},"logo":"https:\/\/dashboard-assets.dappradar.com\/document\/13\/opensea-dapp-marketplaces-ethereum-logo-50x50_82cc11d79baa6aed6b181907d9e4360a.png","deepLink":"https:\/\/dappradar.com\/deeplink\/13","mobileFriendly":false,"featured":false,"protocols":["ethereum","polygon"],"activeProtocols":["ethereum","polygon"],"category":"marketplaces","tracked":true},{"id":10507,"name":"Katana","slug":"katana","new":false,"statistic":{"balance":99281077.886568,"balanceInFiat":24044823.9,"totalBalanceInFiat":643217935.92,"graph":"https:\/\/s3.amazonaws.com\/dapp-activity.dappradar.com\/ronin_10507_7019d066cfc6579ecc7008c476d1b7e3.png","exchangeRate":1,"currencyName":"usd","transactionCount":102052,"userActivity":45918,"volumeInFiat":1342331.29,"totalVolumeInFiat":92685103.3,"totalVolumeChangeInFiat":-24.54,"changes":{"dau":{"status":"+9.02%","label":"positive"},"volume":{"status":"+19.51%","label":"positive"},"tx":{"status":"+2.76%","label":"positive"},"tokenVolume":{"status":"-24.95%","label":"negative"},"totalVolume":{"status":"-24.54%","label":"negative"},"totalBalance":{"status":"-5.64%","label":"negative"}}},"godzillaId":null,"slugs":{"ronin":"katana"},"logo":"https:\/\/dashboard-assets.dappradar.com\/document\/10507\/katana-dapp-defi-hive-logo-50x50_b15ee35de6674acc8020df7a9dec7d43.png","deepLink":"https:\/\/dappradar.com\/deeplink\/10507","mobileFriendly":false,"featured":false,"protocols":["ronin"],"activeProtocols":["ronin"],"category":"defi","tracked":true},{"id":10734,"name":"Magic
        Eden","slug":"magic-eden","new":false,"statistic":{"balance":1375.495356155,"balanceInFiat":125046.28,"totalBalanceInFiat":125057.42,"graph":"https:\/\/s3.amazonaws.com\/dapp-activity.dappradar.com\/solana_10734_2266d84bfe002e2300044475ff95816b.png","exchangeRate":1,"currencyName":"usd","transactionCount":253762,"userActivity":40235,"volumeInFiat":18465616.7,"totalVolumeInFiat":18465616.7,"totalVolumeChangeInFiat":2.38,"changes":{"dau":{"status":"+2.12%","label":"positive"},"volume":{"status":"+2.38%","label":"positive"},"tx":{"status":"-2.72%","label":"negative"},"tokenVolume":{"status":"-","label":"neutral"},"totalVolume":{"status":"+2.38%","label":"positive"},"totalBalance":{"status":"-52.34%","label":"negative"}}},"godzillaId":null,"slugs":{"solana":"magic-eden"},"logo":"https:\/\/dashboard-assets.dappradar.com\/document\/10734\/magiceden-dapp-marketplaces-solana-logo-50x50_46a7bd19acf0de71fa9f4c1d3dc12301.png","deepLink":"https:\/\/dappradar.com\/deeplink\/10734","mobileFriendly":false,"featured":false,"protocols":["solana"],"activeProtocols":["solana"],"category":"marketplaces","tracked":true}],"ad":null}'
    headers:
      CF-Cache-Status:
      - DYNAMIC
      CF-RAY:
      - 6d66512078d33ffb-CDG
      Cache-Control:
      - public, max-age=31536000
      Connection:
      - keep-alive
      Content-Type:
      - application/json
      Date:
      - Mon, 31 Jan 2022 22:18:37 GMT
      Expect-CT:
      - max-age=604800, report-uri="https://report-uri.cloudflare.com/cdn-cgi/beacon/expect-ct"
      Server:
      - cloudflare
      Transfer-Encoding:
      - chunked
      X-Cache-Status:
      - MISS
      X-Frame-Options:
      - SAMEORIGIN
      expires:
      - '-1'
      pragma:
      - no-cache
    status:
      code: 206
      message: Partial Content
version: 1
